{
  "pagination": {
    "last_visible_page": 2,
    "has_next_page": true,
    "current_page": 1,
    "items": { "count": 2, "total": 3, "per_page": 2 }
  },
  "data": [
    {
      "mal_id": 1001,
      "title": "Page1Series1",
      "synopsis": "Synopsis for the first entry on page 1.",
      "images": { "jpg": { "large_image_url": "https://example.test/p1s1.jpg" } },
      "aired": { "from": "2026-04-01T00:00:00+00:00", "string": "Apr 1, 2026 to ?" },
      "season": "spring",
      "year": 2026,
      "type": "TV"
    },
    {
      "mal_id": 1002,
      "title": "Page1Series2",
      "synopsis": "Synopsis for the second entry on page 1.",
      "images": { "jpg": { "large_image_url": "https://example.test/p1s2.jpg" } },
      "aired": { "from": "2026-04-02T00:00:00+00:00", "string": "Apr 2, 2026 to ?" },
      "season": "spring",
      "year": 2026,
      "type": "TV"
    }
  ]
}
